id,brand_name,abbr,logo,status,product_type,description
1,ACCELERA,ACCE,,1,50,"Accelera tires are ultra-high performance tires designed for elegance and safety. Accelera tires provide maximum grip, comfort and protection without compromising on style. Developed especially for drivers that care about the role of tire technology in enhancing vehicle performance and safety, Accelera tires provide immense durability, handling, and traction while increasing tread life.,Manufactured using the DeltaMax technology, Accelera uses a silica compound to achieve excellent grip and overcome aquaplaning forces on wet road. The tires are designed to reduce noise levels and carbon dioxide emissions that significantly minimize rolling resistance to save energy. The double, strong steel belt tied by a cap layer gives a strong grip on uneven road surfaces while remaining stable and during on high speeds. The sidewall is strong and flexible, absorbing shocks on rough surfaces.,DeltaMax insures all aspects of the production process, including product design, are controlled by an automated system, providing a high precision product. The cutting-edge technology is intended to adapt not only to the current trends of auto development but also the future."
2,ACHILLES,ACHI,,1,50,"Achilles is made in Indonesia by PT Multistrada Arah Sarana which was established in 1991. Launched in 2005 and starting out in the replacement industry, Achilles has developed a trusting relationship with affiliated companies becoming OE providers for Mitsubishi Motors, Hyundai, Daihatsu, Hino and Proton in Indonesia. Achilles was able to capture 15% of market share in Indonesia and additionally, had market coverage of 89 countries by the end of 2012. As a growing factory, Achilles is committed to providing the best tire for all the markets around the world.,The manufacture of the ACHILLES performance tire was only possible through the installation of a completely new and state of the art production line. Achilles is positioned to compete against high-end world-class performance tires from major manufacturers, marked a significant commitment by MASA to deliver leading-edge tire technology to its customers. New confidence in our competitive strength emboldened the company to move into specialized areas of production such as winter tires for northern climes."
3,ARROYO,ARYO,,1,50,"We didn’t invent the wheel, but we’re making it move. Arroyo Tires is an innovative brand made with the most advanced technology to bring you the best quality with the safety in mind. Whether you like to ride fast or like take it slow, rule the road when you choose Arroyo.,Arroyo Tires offers superior performance, precision handling, braking grip, comfort and durability along with low noise level. We are dedicated to delivering enhanced savings and operational efficiencies while reducing environmental impact. Our all-season tires are a perfect fit for any vehicle. Peruse through these grooves until you find what’s right for you!"
4,ATTURO,ATTR,,1,50,"Atturo Tire is the tire brand dedicated to the SUV, Crossover and Light Truck (4x4) segments of the tire market.  Atturo designs and distributes stylishly aggressive tires that meet your needs both on and off road.  The active outdoor lifestyle embraced by people around the world is driving the growth of the SUV and 4x4 vehicle market.  We are the only brand solely focused on delivering tires to support your daily adventure.  Atturo is committed to delivering on its promise, to keep performance within reach by continuous improvement and innovation.,Since its beginning, Atturo has used that principle to guide our business. Whether you are replacing your original equipment tires, or upgrading to a larger size, Atturo offers you a unique, quality tire to enhance the performance and appearance of your vehicle.  From the urban commute, to overland play, Atturo delivers a great tire for a reasonable price."
5,BFGOODRICH,BFG,,1,50,"Driving enthusiasts aren’t the only ones who enjoy their vehicles. Everyone who lives life with a sense of adventure needs a way to get out into the world and enjoy it. Wherever your interests lead you, BFGoodrich tires believes you can have fun along the way.,Our tires are designed and built by enthusiasts — people who go to track days or off-roading on the weekends. We work to continually improve tire performance because we want the same thing from a tire that you do. More control, more grip and more smiles behind the wheel.,The love of driving is the long-standing spirit of BFGoodrich tires. We invite you to see for yourself by talking to one of our dealers who can help explain what makes our tires perform better, and find the ideal fitment for you. When you ride on BFGoodrich tires you experience what your car is really capable of doing."
6,BRIDGESTONE,BSR,,1,50,"Bridgestone is a world leader in developing innovative tire technologies. Our continuing investment in research and development has resulted in game-changing new products, like winter tires with more bite and better grip, fuel-efficient tires with that enhance fuel economy and safety innovations like our next-generation run-flat tires.,Bridgestone manufactures world-class tires for nearly every kind of vehicle, from a kart tire that stands only 10 inches high to a 13-foot-tall giant radial for earth-moving equipment. In addition, Bridgestone is also recognized internationally for producing a variety of other products, including building and industrial materials, natural rubber, and industrial fibres and textiles.
"
7,CARLISLE,CAR,,1,50,"The Carlisle brand of specialty tires and wheels provides a comprehensive product portfolio for lawn and garden, ATV / UTV, trailers/haulers, agriculture, construction, industrial, and tube/flap market segments. Driven by ingenuity and innovation, our Carlisle branded tires deliver utility for your workday and performance for your adventures.,A staple on original equipment machines for work and for play, the Carlisle brand is well-known among leading manufacturers as well as aftermarket retailers in the tire and wheel industry. Long recognized as a leader in the industry, the Carlisle brand offers best-in-class quality, cutting-edge technology and product performance.,We know that your tires are just as important as your priorities. Putting trust in your tires and wheels to get you to where you’re going safely and efficiently is our utmost priority. By engineering solutions that help impact your work, our standard of excellence in function-forward product development proves that our Carlisle brand of tires and wheels not only stands out from competition, but positively impacts our most important customer – you!,Carlisle branded tires are manufactured and sold under The Carlstar Group. A leader in the specialty tire and wheel industry, The Carlstar Group is headquartered in Franklin, Tennessee, and has a global footprint with well-recognized consumer brands in both domestic and foreign markets. The Carlstar Group employs over 3,500 associates in 14 facilities located in four countries and has created a culture of converting great ideas into advanced products with a legacy of excellence in product innovation, quality, and customer service."
8,CONSTANCY,CONS,,1,50,
9,CONTINENTAL,CON,,1,50,"Continental was founded in Hanover in 1871 as the stock corporation “Continental-Caoutchouc- und Gutta-Percha Companies”. Manufacturing at the main factory in Hanover included soft rubber products, rubberized fabrics, and solid tires for carriages and bicycles.,Continental develops intelligent technologies for transporting people and their goods. As a reliable partner, the international automotive supplier, tire manufacturer, and industrial partner provides sustainable, safe, comfortable, individual, and affordable solutions. In 2014, the corporation generated sales of approximately €34.5 billion with its five divisions, Chassis & Safety, Interior, Powertrain, Tire, and ContiTech. Continental currently employs approximately 200,000 people in 53 countries."
10,COOPER,COO,,1,50,"The beginnings of Cooper date back to 1914 in Akron, Ohio, when two brothers-in-law John F. Schaefer and Claude E. Hart formed a company to produce tire patches, tire cement and tire repair kits.  Schaefer and Hart purchased The Giant Tire & Rubber Company of Akron, a tire rebuilding business, and shortly thereafter moved the business to Findlay, Ohio.,Established in 2014 in Findlay, Cooper’s Global Technical Center is a worldwide center of excellence for tire science and technology deployed around the globe.  Along with the continuous improvement of our tires, Cooper performs rigorous testing at our facility near San Antonio, Texas. At Cooper, we believe that manufacturing a quality product is key to ensuring your peace of mind. All Cooper® tires are backed by a standard or premium limited warranty, and select products are also backed by a 45-day road test or mileage warranty, helping to give you peace of mind on the road."
11,CROSSWIND,CRWD,,1,50,
12,DELINTE,DLNT,,1,50,"A smart performance brand for smart drivers. It’s smart to look for new ideas, new technology and new value in high performance tires. That’s why a growing number of drivers worldwide are looking to Delinte. Engineered and produced under the leadership of a European technology team, Delinte tires provide the satisfying performance and the aggressive styling that today’s most progressive drivers demand."
13,DUNLOP,DUN,,1,50,"Dunlop is one of the world's foremost manufacturers of high-performance tires. Dunlop is a brand owned by The Goodyear Tire & Rubber Company, headquartered in Akron, Ohio, which employs approximately 73,000 people in 22 countries and produces nearly 200 million tires each year.,Dunlop's history (now approaching 125 years) traces back to the first pneumatic tire and the dawn of motor racing. That heritage is reflected in the design of every tire we make. Our focus on performance has led to numerous innovations and breakthrough technologies. In addition to automotive tires, we produce a wide range of tires for motorcycles, ATVs, competition go-carts, and commercial trucks. We also sponsor numerous racing and high-performance automotive events."
14,FALKEN,FALK,,1,50,"Falken Tires was launched in its native country of Japan in 1983 and introduced to the North American market two years later. At its inception, Falken was created as the flagship high performance radial brand under Ohtsu Tire and Rubber. Now, nearly 35 years later, Falken has solidified its place as a strong consumer choice for tires, as it has focused on UHP (Ultra High Performance) products by participating in – and winning – well-known professional motorsports programs. The success achieved in these programs helps to further develop and improve passenger vehicle products for both domestic and worldwide distribution.,Falken Tires prides itself on its in-house branding and creative capabilities, delivering award-winning advertising and promotional efforts designed to communicate with its customers by providing key information on its brand and product lines. Falken’s marketing actions also support its dealer and retailer sales efforts. Through its advertising and sales programs, Falken Tires consistently strives to fully leverage and ultimately maximize its exposure in Professional Drifting and multiple autocross and national driving programs."
15,FEDERAL,FED,,1,50,"To dig to the root of all problems and to solve them with the utmost efficiency, Federal established the Advanced Product Quality Planning (APQP) program for pursuing detailed quality control throughout the company.,As part of this program, Federal also established the “Self Motivated Quality Assurance System” for our front line staff.,To maintain and improve FEDERAL's superlative performance, we have implemented ISO-90001 standards and adopted QS-9000 parameters for quality assurance.,Over the years, we have also received a number of awards and certificates from car manufacturers such as Ford and GM."
16,FIRESTONE,FIRE,,1,50,"Harvey Firestone, took his new rubber-tired buggy to the track one day in the early 1890s, he won. Big time. Not only did he experience the superior performance of rubber tires for the first time, he got a taste for leading the competition. And that’s exactly what Firestone has been doing for more than 115 years.,The Firestone Tire Company was founded on a determination to offer the quality and service it takes to win the race, wherever that race may be. It’s how we made the non-skid tread pattern an industry standard — in 1909. It’s how we’ve helped our driver’s win the Indianapolis 500 more than 60 times and counting. And it’s why we’re still a household name generations after that historic horse race. But make no mistake: There’s plenty of roads ahead. And we’re looking forward to writing history for a long time coming."
17,FURY,FURY,,1,50,"FURY Off-Road Tires and Wheels is a new brand with a deeply-rooted knowledge for innovation in the automotive aftermarket industry.,We understand the world of extreme Off-Road sports and your adventurous needs to achieve the optimal experience. Our customers are those who thrive to blaze new trails for others to follow. Your passion for off-roading inspires our engineers to create products designed specifically for this ever growing sport.,Our innovative engineering and technology delivers unique experiences by breaking new ground and setting the bar. Our products are tested on and off-road daily, ensuring only the best make it to market.,Fury’s hard goods are aimed to provide the same intensity and passion you encounter on the uncharted intersection of everyday life. FURY’s armed and ready to fulfill all your off-road needs. We got you!"
18,FUZION,FUZ,,1,50,
19,GENERAL,GEN,,1,50,"September 1915, William F. O‘Neil, “W.O.” and Winfred E. Fouse, found the General Tire and Rubber Company. The general tire develops rubber flaps for truck tires. Until General tires opens its 6th plant, equipped for full radial tyre production, in Mt. Vernon, Illinois. They re-enter off road racing and introduced a new logo to represent the brand for both the passenger/light truck and the commercial vehicle tire division. For that past 100+ years, we've brought you tires that go faster, grip harder, last longer. And we're just getting started."
20,GOODYEAR,GDYR,,1,50,"Goodyear is one of the world’s largest tire companies. It employs about 64,000 people and manufactures its products in 48 facilities in 22 countries around the world. Its two Innovation Centers in Akron, Ohio and Colmar-Berg, Luxembourg strive to develop state-of-the-art products and services that set the technology and performance standard for the industry. Goodyear’s winged-foot trademark was inspired by a newel-post statuette of the Roman god Mercury in the home of Goodyear founder Frank Seiberling. Seiberling felt Mercury embodied many of the characteristics for which Goodyear products were known."
21,GREENBALL,GREE,,1,50,"For over forty years we've dedicated ourselves to meeting our customer's needs and demands. By offering a wide selection of tire products accompanied with efficient and friendly service, Greenball has proven to be a reliable business partner for customers at the retail, wholesale and OEM levels. All these elements together allow us to create opportunities that help our customers sell more products to a greater range of clients.,Greenball develops, manufactures and imports a variety of quality tires. Our vendors are carefully selected to ensure the quality of tires imported are able to meet the market's needs. Dedicated to ongoing research and development, Greenball continues to be an industry leader in new and innovative tire designs. The success of our own private brands such as TOW-MASTER, POWERMASTER, and DIRT DEVIL speak for themselves.,Greenball has steadily grown over the years. As our sales have grown, our need for space has also grown. From a humble beginning in a 2,300 ft. square warehouse with three employees, we now have three distribution centers across the nation and over 100 employees to serve you."
22,GT RADIAL,GT,,1,50,"Giti Tire has implemented a comprehensive quality control system at all seven of its tire plants. Strict quality control measures ensure that the quality of raw materials meet required specifications. Gitialso conducts inspections at each stage of the production process to ensure that each component meets relevant specifications and standards.,Giti Tire subjects tires to a final inspection before packaging them for delivery. With the use of an internal numbering system, the factories and distribution centers are able to monitor the employee group responsible for a particular production process, for each tire that is produced.,Part of the efforts to keep improving quality and safety standards include a single barcode located on the tire’s sidewall for backward tracing from the raw materials used all the way to the final product."
23,HANKOOK,HANK,,1,50,"From its humble beginnings in 1941 as Korea’s first tire company, Hankook Tire has grown into the seventh largest tire company in the world, one that continues to create new possibilities and overcome new challenges. Hankook Tire is actively embracing the global stage. With constant technological development and commitment to innovation, we are taking a leap to become a leading global tire company that provides sustainable solutions to deliver ultimate driving satisfaction to all customers.,For the future, our aim is to reinforce our global competitiveness by strategically investing in a skilled labor force to expand R&D. Fostering creative and competitive personnel is also a goal at Hankook Tire as we strive to continuously do our part as a member of global community and grow in tandem with the world."
24,IRONMAN,IRON,,1,50,"When it comes to tires, we believe you should never have to compromise quality for price. Our expanding lineup of Ironmanbrand tires includes today’s most popular styles and sizes, giving you greater choice, no matter what your budget. And as part of the Hercules family of tires, you can rest easy knowing you’re getting the quality assurance and superior support that are the very hallmarks of the Hercules name."
25,JINYU ,JINY,,1,50,"Jinyu is a key international player in the tire industry with a full range of premium value tire products, employing research-led tire patterns that cover a multitude of applications for day-to-day use. All products promise to provide outstanding quality backed with after-sales support from experienced and trusted industry professionals.,Jinyu was established in 1995 and has worked its way up the list to become one of the largest tire manufacturers in the world. Such staggering growth is attributed to the commitment Jinyu has to its three core values – quality products, services you can trust, and lifetime support. It carefully chooses only world-class partners and recognized leaders in their specific technological and rubber industry specialization to help create the quality products you see today."
26,KELLY,KELL,,1,50,"Kelly Tires, the oldest tire brand in the U.S. was established in 1894. Today we're celebrating more than 115 years in the tire business and looking forward to many more.,Today Kelly Tires is the oldest tire brand in the U.S., leading the tire industry with over a century of experience. Our history traces all the way back to horse and buggy carriage wheels, and the century of knowledge that we’ve gained since then is reflected in each and every tire we produce.,Our tradition of offering good deals on great tires continues living on today with programs like our 30-Day Test Drive, which grants customers 30 days to really commit to their tire choice. Kelly Tires is a part of the Goodyear Tire & Rubber Company, headquarter in Akron, OH, which employs approximately 73,000 people in 22 countries and produces nearly 200 million tires each year."
27,KUMHO,KUM,,1,50,"Kumho Tire is a high performance tire company that brings quality and innovative technology to consumers worldwide. With over 50 years of experience, Kumho Tire has transformed its humble beginning in South Korea into becoming one of the largest tire manufacturers with 8 factories. Kumho Tire USA is dedicated to ensuring the safety and performance of all our products to our customers."
28,LEAO,LEAO,,1,50,
29,LEXANI,LEXI,,1,50,"Lexani Tire recognizes the need for a premium performing product with the ever increasing demands and characteristics of today's vehicles. And with an extensive portfolio of tire options to accommodate today's most demanding and discerning drivers, you can rest assured that Lexani has the appropriate tire to confidently satisfy your needs for whatever vehicle you drive.,Providing superior performance and cutting edge design and aesthetics encompasses the Lexani tradition. In addition to performance and superb design Lexani also has a keen focus on a sustainable future and utilizes technology to incorporate fuel economy, a quiet comfortable ride, and tire longevity to enhance the future for everyone."
30,LIONHART,LEXI,,1,50,"Lionhart Tires has united the latest in technology, innovation, unique fitment, overall performance, cosmetics and price to deliver distributors, retailers and the end user the ultimate value in a true UHP, SUV and Off Road Tire line. Lionhart tires now includes a full range of passenger, light truck, trailer, in addition to the Flagship (UHP, SUV, and Off Road) of the brand. Lionhart tires have exceeded all European standards. These same tires are the best choice for the finest European Sports Cars O.E. fitment. Lionhart also features sizes that not every tire manufacturer currently makes and that is why it is and will be on the cutting edge in the Tire Industry.,The Lion represents “Strength, Courage and Leadership.” This is also applicable to the Lionhart brand from our rugged strength “Mud Beast” to our new and unique fitment sizes, blazing new roads by leading the way in creating new markets and opportunities, while maintaining the courage and conviction to see our vision to its fruition.,Our brand truly has it all: We can realistically grow your business by leaps and bounds with a solid, high quality, reasonably priced full line tire options that is in it for the long haul."
31,LIZETTI,LIZ,,1,50,
32,MASTERCRAFT,MAS,,1,50,"We take great pride in making high quality, safe and reliable tires. And, we care about every person who rides on our tires. Getting to your destination and back safely is priority number one.,Tire Safety is crucial and the importance of properly maintaining your tires cannot be overemphasized. Remember, tires are the only contact between your vehicle and the road. As you make your way through Mastercraft's tire safety section, you'll find a wealth of information on tire replacement, driving tips and most importantly, proper tire maintenance. Maintenance, tire basics and education can make your ride on the road a lot safer. So, before you hit the road, review Mastercraft’s tire safety information to help you stay on top of your tire’s condition and maintenance, and to maximize safety, satisfaction and tread life."
33,MAXXIS,MAXX,,1,50,"Maxxis International is committed to delivering high performance tyres to the world. Our products are unequalled in quality and performance. With over forty-five years of manufacturing experience and the ingenuity of our people, we have created new technologies to develop our diversified tyre products. Our products are thoroughly tested in our own facilities and at the world's leading tyre test centres. In addition, our engineers test our tyres with our national and world-class champions. We utilise the most advanced manufacturing equipment and engineering facilities in the industry. Only after extensive professional evaluation does a product go into production.,The Maxxis brand is both a vital asset and a source of pride for our 30,000+ employees. Because customers are the best possible ambassadors for our brand, we're committed to providing the fine products and excellent service they demand.,And as technology evolves, new avenues open to spread the word about Maxxis. We stay in step with the times, using the most advanced marketing strategies in our efforts to recruit new Maxxis customers."
34,MICHELIN,MICH,,1,50,"Michelin, the leading tire company, is dedicated to enhancing its clients’ mobility, sustainably; designing and distributing the most suitable tires, services and solutions for its clients’ needs; providing digital services, maps and guides to help enrich trips and travels and make them unique experiences; and developing high-technology materials that serve the mobility industry. Headquartered in Clermont-Ferrand, France, Michelin is present in 170 countries, has 111,700 employees and operates 68 production facilities in 17 countries which together produced 187 million tires in 2016.,Michelin seeks to blend into local community life with the help of its employees, who are themselves very keen to get involved. In the spirit of Michelin's Performance and Responsibility approach, the Group wants to contribute to the sustainable development of its host communities through stronger, more systematic and more targeted initiatives. The new commitments contained in the Ambitions for 2020 expand on and update its recommendations from 2004."
35,MICKEY THOMPSON,MTP,,1,50,"Since 1963, Mickey Thompson Tires has always been an Enthusiast Brand. Mickey Thompson built his products to WIN, he built them from necessity. We hold fast to Mickey’s values, his unceasing drive for faster the better. First-to-market with low profile performance tires. A lot of tire companies win races. We had a long Winning Streak before others saw their first checkered flag. When the race is over, don’t be surprised... you’ll find M/T on the podium.,Our winning reputation comes from end-less commitment to quality and innovation. Our commitment extends to racers and non-racers alike. We build every product with a Winning Mentality. We call it the MICKEY MENTALITY, Uncompromised engineering and manufacturing ensures products that deliver on our commitment to Bigger, Faster, and Better."
36,MILESTAR,MILE,,1,50,"MILESTAR TIRES are developed with a focus on outstanding quality and high performance. Offering a wide product assortment in Passenger, High Performance, Ultra-High Performance, Light Truck, and Commercial Medium Radial Truck applications, Milestar options cover the needs of the tire replacement market.,Owned and marketed by Tireco, Inc., a U.S.-based private brand marketer and distribution company. Founded in 1972, Tireco, Inc. has become an industry leader in consumer, commercial, and specialty tires, as well as towable and custom wheel products. Today, Tireco, Inc. is headquartered in Gardena, California and has an extensive network of national dealer/distributors and operates one of the country’s largest tire warehouses located in Fontana, California. Tireco, Inc. is dedicated to providing dealers with exceptional service and quality products at an outstanding value."
37,NANKANG,NANK,,1,50,"Nankang originally built tires for use on Taiwan's domestic vehicles.  NANKANG's quality products quickly expanded to commercial, aeronautics, and earned FORD Motor Company's Q1 certificate in 1987.,Nankang continued to improve and excel in manufacturing and received its ISO-9001 certificates in 1994, ISO-14001 certificate in 1997, QS-9000 certificate in 1998, ISO/TS 16949 certificate in 2001, European RDW# E4-117R-000001-S in 2005, and launched its new ECO fuel saving line in August 2008!,Nankang tires are distributed in every major continent, in over 50 countries, and are world renown for their superior quality and innovation."
38,NEXEN,NEX,,1,50,"Established in 1942 under the name Heung-A Tire Company, Nexen Tire Co. is proud to have served the tire industry for the past 71 years. We were recognized in 1956 as the first Korean tire company. NEXEN’s pioneering ways have led to the development of Korea’s first V-shaped directional tires, patented nano-technology and our award winning Green Hive concept tire. NEXEN is committed to ongoing research and development of future tire technologies utilizing cutting-edge equipment to ensure safety, value and performance with an environmentally gentle approach.,Our company has evolved and grown over the years, but remaining constant in our unwavering quest for quality and customer satisfaction."
39,NITTO,NIT,,1,50,"Nitto Tire is driven by passion and innovation. We create tires for those who are enthusiastic about their vehicles. We always strive to anticipate and drive consumer trends by supporting emerging markets before they are mainstream, helping them grow and driving the market forward.,Our tire sizing, tread patterns and tire compounds combine modern aesthetics with cutting-edge technology. This technology has helped us create some of the most radical-looking tire designs on the market today. These memorable designs are the result of state-of-the-art development, quality engineering and rigorous testing procedures. By incorporating computer-modelled designs for road noise reduction and a program that aids in enhancing dynamic contact points while driving, our engineers successfully identify and counteract undesirable tire responses in a variety of driving conditions. In addition, the tested technological advances in polymer tread compounds allow our engineers to deliver truly high-quality tires that provide extended tread life, improved traction on both wet and dry roads and inspire driver satisfaction."
40,NOKIAN,NOK,,1,50,"Nokian Tyres is the world’s northernmost tyre manufacturer that offers peace of mind in all conditions. Our know-how stems from our Scandinavian roots and values. Sustainable safety and eco-friendliness across the entire life cycle are the goals for our passenger car tyres, truck tyres and heavy tyres. Our group also includes the Vianor chain, specialising in vehicle maintenance and tyre services.,In 2017, the company’s turnover was approximately EUR 1.6 billion and it employed some 4,600 people. Nokian Tyres is listed on Nasdaq Helsinki.We develop and manufacture high-quality tyres for passenger cars, vans and trucks. We are especially well known for our innovative winter tyres, while we are also developing competitive summer and all-season tyre ranges. As one of the world's leading manufacturers of heavy special tyres, we focus on selected segments, such as forest, agricultural, harbour and mining machinery. Our group also includes the Vianor chain, specialising in vehicle maintenance and tyre services."
41,OHTSU,OHT,,1,50,
42,PIRELLI,PIR,,1,50,"The Pirelli brand is known as an icon of technology and excellence. It is a name that stands for a premium, high-end style with an Italian heritage all underlined by the company’s dominant position as a supplier to luxury car manufacturers..The fame of the Pirelli name and brand also stems from its involvement in multiple activities beyond tyre manufacturing. It has a record of 110 years supporting motorsport, it sponsors multiple sports – from the Italian football team Inter Milan and America’s Cup winner Emirates Team New Zealand, to the Los Angeles Dodgers baseball team – and it has a commitment to the arts and culture represented by the Pirelli Calendar, the Pirelli Foundation and Pirelli Hangar Bicocca, one of Europe’s largest exhibition spaces for contemporary art. The company is also involved in numerous initiatives for the community."
43,PRESA,PRE,,1,50,"PRESA is one of the latest and innovative lines from Cheng Shin Rubber, one of the most important global brands recognized for their high quality all around the world. The PRESA line tires were first developed to attend the European market requirements and it is now being distributed not only in Europe but in many other regions in Asia and Latin America.,PRESA tires, manufactured in our Taiwan and Thailand plants, are made with the highest quality materials and advanced technology. We offer our customers outstanding performance, great precision, extraordinary handling control, an excellent grip during breaking, superior comfort, phenomenal durability, and low noise level.,A reliable tire designed with safety, for you and your family, in mind as our highest priority. Tires created with empathy to the needs of our consumers and the environment. Designed with simplicity in mind, but based on complex technological processes, we are always ready to adapt to the changing needs of our consumers. Innovating and leading the way, in other words, we are always one-step ahead.,PRESA line is now here to offer the highest quality of tires at prices that are truly competitive to the current market."
44,RBP,RBP,,1,50,"Since dropping in 2001, Rolling Big Power (RBP) has become a unique player in the custom off-road truck category. The RBP portfolio adds a distinctive, bold aesthetic to rugged off-road wheels, grilles, steps, and accessories. These high-performance, off-road products are engineered to handle all the mud, dirt and grit you care to throw at them, then clean up nicely for a night on the town. That’s the reason RBP has become a favourite of master modifiers and top truck designers across the country. RBP is continually researching trends and materials to bring you innovative accessories that perform well in all terrain, and can get your heart pumping when your truck’s standing still."
45,SAFFIRO,SAFF,,1,50,"Saffiro brand offers an extensive selection of passenger, UHP, light truck, trailer, and TBR tires meant for the driving enthusiast. With modern designs manufactured by cutting-edge technology, Saffiro brand is sure to deliver the best quality ride. Saffiro is a seller and distributor of tires to all 50 States and internationally.Saffiro offers the best quality tires for light truck, SUV, and passenger cars. Providing dependable traction in various conditions allows for excellent year-round performance."
46,SUMITOMO,SUM,,1,50,"Sumitomo Tires is the premium export brand of Sumitomo Rubber Industries, Ltd. (SRI) and is one of the most successful and influential tire manufacturers in the world. Within the tire industry, Sumitomo enjoys a well-earned reputation for innovative design, precision engineering, and superior quality. We are a global brand that competes on the basis of product value and real world performance.,The principles of our founder, Masatomo Sumitomo insisted upon reliability and trust over 400 years ago and the Sumitomo business spirit continues that proud tradition. At Sumitomo Tires, we create unmatched value for our consumer by standing firmly upon traditions of the past and focusing on the possibilities of the future."
47,SYRON,SYR,,1,50,"All SYRON High Performance Tires are tested in multiple stages of development and verified through a continuous inspection and tests as well.,SYRON Tires can be used under various climatic conditions. It has been tested under different conditions and circumstances which ensures first class quality guarantee for international use. Continuous quality improvement and TU and TÜV (German Association for Technical Inspection) certification standards flow into the development process to promote our long term innovation to provide customer satisfaction.cars. Providing dependable traction in various conditions allows for excellent year-round performance.SYRON High Performance tires appeared in two of the biggest Quality Inspection Magazines “Promobil” and “Lastauto Omnibus”. Our product “Everest 1” has been awarded as the winner for “Best Value for money”. With these performance criteria, we meet the requirements of economical prices and high quality. Additionally, this tyre has also acquired best rating in “External rolling noise” criteria. Based on these accomplishments, we progress on new product designs and innovations which leads on to develop high quality tires."
48,TOYO,TOYO,,1,50,"Established in 1966, Toyo Tire U.S.A. Corp. represents the innovation, quality, performance, and excellent service that Toyo Tires has delivered worldwide for more than 70 years.,We offer a complete selection of premium replacement tires for nearly every make and model including light trucks, SUVs, high performance cars, and luxury vehicles, as well as commercial trucks. Many of these tires are built here in the United States at our state-of-the-art factory in Bartow County, Georgia."
49,UNIROYAL,UNIR,,1,50,"Uniroyal tires muscled up the muscle cars and gripped the road like tiger paws. Our latest power lines continue this innovation, rolling Americans into the future on long-lasting, responsive tires. And we’re not doing it alone. Our dealer partners have always been our greatest champions, recommending affordable and dependable Uniroyal tires to both long-time and new consumers. As long as there are vehicles on the road, Uniroyal will be there too. After 125 years, our story is still being written. "
50,VOGUE,VOG,,1,50,"The Vogue Tyre and Rubber Company's tradition for providing custom luxury tyres for the most discerning customers has been alive for over 103 years. Vogue Tyre has been at the cutting-edge of performance design and technology and continues to provide customers with a distinctive tyre with outstanding performance.,Vogue Tyres has set industry standards and continues to raise the bar in this competitive industry. Known for inventing the whitewall tyre with a patented gold stripe design back in the early 1900s, Vogue has become the tyre of choice for high-end vehicles and the discriminating motorists including celebrities and professional athletes.,The Vogue Tyre and Rubber Company's tradition for providing custom luxury tyres for the most discerning customers has been alive for over 103 years. Vogue Tyre has been at the cutting-edge of performance design and technology and continues to provide customers with a distinctive tyre with outstanding performance."
51,WESTLAKE,WES,,1,50,"Hangzhou Zhongce Rubber Co., Ltd. (manufacturer of Westlake Tires) was founded in 1958 and is the largest and fastest growing manufacturer for passenger tires, SUV tires, truck and bus tires, industrial tires, motorcycles tires and rubber products in China.,Hangzhou Zhongce Rubber Co., Ltd. is currently ranked No. 1 tire manufacturer in China, No.10 tire manufacturer in the world by Tyre& Accessories magazine with sales revenue of USD4.88 billion.,The company produces tires under the brands “Westlake”, “Yartu”,and  “CYT”,With an extensive product range, covering all sectors of the car tire market, Westlake is continually investing in developing its production capacity, range and brand offer to become a leading force in the quality tire segment.,Over 20,000 employees worldwide, the company is committed to producing quality products with a sustained and continuous supply. Continuous product innovation along with strict quality controls and adherence to ISO9000 requirements, DOT and ECE standards demonstrate the company’s commitment to manufacturing high quality product at the right price."
52,WINDFORCE,WINF,,1,50,"Windforce tyres are a high-quality Chinese brand that are well recognized in both domestic and international markets. All tread patterns and tyre specifications are designed by the R&D team according to the latest market requirements. Windforce tyres are produced with the first class equipment and strict quality management systems im place to ensure a premium quality end product. Because of their strong build and advanced designs, Windforce tyres easily attained all the required certifications to allow them to be used anywhere in the world.,With the high quality, reasonable prices and excellent customer service and after sales support, Windforce win new markets every day. Don’t miss out on the next big thing in Chinese tyres!"
53,WINRUN,WINR,,1,50,"Winrun Tyre Co.,Ltd. is located in Guangzhou,China,a city which next to HongKong.WINRUN is a tyre supplier of PCR,UHP,4x4,SUV,LTR etc.applications,we are specialized UHP size range in china.,Winrun Tyre Co.,Ltd. has owned its 2 brands WINRUN and ROADCLAW. Each targets different market and application.We do believe that differnt people have different thinking,this is the reason we always work together with our agents for new sizes development in order to fulfill most of special requirements.,We wish our products and professional service would keep you doing business with Winrun with satisfaction."
54,YOKOHAMA,YOK,,1,50,"Yokohama also takes its responsibilities to the environment very seriously. Among our many ongoing initiatives, we have eliminated the use of CFCs and trichloroethane in the manufacturing process, and have switched from heavy oil to natural gas to reduce CO2 emissions and save energy.,Driven by the needs of people, Yokohama continues to respond with environmentally-compatible solutions engineered to outperform, whatever the performance need."
